package com.echelon.rating.calc.nonfleet.auto

declare End27bPremCalcFactors 
		vehiclePK			: long
		endorsementCd		: String
		op27bClPrem			: double
		op27bCmPrem 		: double
		op27bApPrem		 	: double
		op27bSpPrem		 	: double		
end

//limit to a list of endorsements
rule "NonFleet-Calc-OP27B-Premium-BEGIN" extends "NonFleet-Calc-OP27B-BASE"
	when
		not (End27bPremCalcFactors(endorsementCd == SpecialtyAutoConstants.SPEC_VEH_RISK_ENDORSEMENT_OPCF27B && vehiclePK == $veh.policyRiskPK))
	then
		//System.out.println("NonFleet-Calc-OP27B-Premium-BEGIN:"+$endr27b.getEndorsementCd());
	
		End27bPremCalcFactors fact = new End27bPremCalcFactors();
		fact.setVehiclePK($veh.getPolicyRiskPK());
		fact.setEndorsementCd(SpecialtyAutoConstants.SPEC_VEH_RISK_ENDORSEMENT_OPCF27B);
		insert(fact);
end

// variable $fact for the rules 
rule "NonFleet-Calc-OP27B-Premium-BASE" extends "NonFleet-Calc-OP27B-BASE"
	when
		$fact : End27bPremCalcFactors(endorsementCd == SpecialtyAutoConstants.SPEC_VEH_RISK_ENDORSEMENT_OPCF27B && vehiclePK == $veh.policyRiskPK)
	then
		//System.out.println("NonFleet-Calc-OP27B-Premium-BASE:"+$endr27b.getEndorsementCd());
end


rule "NonFleet-Calc-OP27B-Premium-CLPREM" extends "NonFleet-Calc-OP27B-Premium-BASE"
	when
		$rf: RateFactor(rateFactorId str[endsWith] NonFleetAutoRateConstants.RFID_27BCLPREM && rateFactorNumericValue != null) from $endr27b.rateFactorsLink.rateFactors
	then
		$fact.setOp27bClPrem($rf.getRateFactorNumericValue());
		//System.out.println("27B CL Prem:" + $fact.getOp27bClPrem());
end

rule "NonFleet-Calc-OP27B-Premium-CMPREM" extends "NonFleet-Calc-OP27B-Premium-BASE"
	when
		$rf: RateFactor(rateFactorId str[endsWith] NonFleetAutoRateConstants.RFID_27BCMPREM && rateFactorNumericValue != null) from $endr27b.rateFactorsLink.rateFactors
	then
		$fact.setOp27bCmPrem($rf.getRateFactorNumericValue());
		//System.out.println("27B CL Prem:" + $fact.getOp27bCmPrem());
end

rule "NonFleet-Calc-OP27B-Premium-SPPREM" extends "NonFleet-Calc-OP27B-Premium-BASE"
	when
		$rf: RateFactor(rateFactorId str[endsWith] NonFleetAutoRateConstants.RFID_27BSPPREM && rateFactorNumericValue != null) from $endr27b.rateFactorsLink.rateFactors
	then
		$fact.setOp27bSpPrem($rf.getRateFactorNumericValue());
		//System.out.println("27B SP Prem:" + $fact.getOp27bSpPrem());
end

rule "NonFleet-Calc-OP27B-Premium-APPREM" extends "NonFleet-Calc-OP27B-Premium-BASE"
	when
		$rf: RateFactor(rateFactorId str[endsWith] NonFleetAutoRateConstants.RFID_27BAPPREM && rateFactorNumericValue != null) from $endr27b.rateFactorsLink.rateFactors
	then
		$fact.setOp27bApPrem($rf.getRateFactorNumericValue());
		System.out.println("27B AP Prem:" + $fact.getOp27bApPrem());
end

rule "NonFleet-Calc-OP27B-Premium-END" extends "NonFleet-Calc-OP27B-Premium-BASE"
	when
	
	then

		$endr27b.getEndorsementPremium().setOriginalPremium(
				calcPremiumByFactor($fact.getOp27bClPrem() + $fact.getOp27bCmPrem() + $fact.getOp27bSpPrem() + $fact.getOp27bApPrem(), 1)
				);		

		/** 
		System.out.println("===== ENDORSEMENT OPCF27B =====" +$endr27b.getEndorsementCd());
		System.out.println("27B CL:" + $fact.getOp27bClPrem());		
		System.out.println("27B CM:" + $fact.getOp27bCmPrem());
		System.out.println("27B SP:" + $fact.getOp27bSpPrem());
		System.out.println("27B AP:" + $fact.getOp27bApPrem());	
		System.out.println("End 27B Premium:" + $endr27b.getEndorsementPremium().getOriginalPremium());**/	

end