package com.echelon.rating.calc.nonfleet.auto

// Collision CL for 27B //

declare Op27bClPremCalcFactors 
		vehiclePK			: long
		vehicleClass		: long
		coverageCode		: String
		baseRateOp27bCl		: double
		drFactorOp27bCl  	: double
		vrgFactorOp27bCl   	: double
		dedFactorOp27bCl   	: double
		op27bClPrem			: double
end

rule "NonFleet-Calc-OP27B-CL-Premium-BEGIN" extends "NonFleet-OP27B-CL-Calc-COVERAGE-BASE"
	when
		(not Op27bClPremCalcFactors(coverageCode == NonFleetAutoRateConstants.COVERAGE_CODE_27BCL && vehiclePK == $veh.policyRiskPK))
	then
		Op27bClPremCalcFactors fact = new Op27bClPremCalcFactors();
		fact.setVehiclePK($veh.getPolicyRiskPK());
		fact.setCoverageCode(NonFleetAutoRateConstants.COVERAGE_CODE_27BCL);
		fact.setBaseRateOp27bCl(0);
		fact.setDrFactorOp27bCl(1);		
		fact.setVrgFactorOp27bCl(1);
		fact.setDedFactorOp27bCl(1);
		fact.setOp27bClPrem(0);
		insert(fact);
end

//variable $fact for the rules 
rule "NonFleet-Calc-OP27B-CL-Premium-BASE" extends "NonFleet-OP27B-CL-Calc-COVERAGE-BASE"
	when
		$fact : Op27bClPremCalcFactors(coverageCode == NonFleetAutoRateConstants.COVERAGE_CODE_27BCL && vehiclePK == $veh.policyRiskPK)
	then

end

rule "NonFleet-Calc-OP27B-Premium-CL-BASERATE" extends "NonFleet-Calc-OP27B-CL-Premium-BASE"
	when
		$rf: RateFactor(rateFactorId str[endsWith] NonFleetAutoRateConstants.RFID_BASERATE && rateFactorNumericValue != null && rateFactorNumericValue > 0) from $covop27bcl.rateFactorsLink.rateFactors
	then
		$fact.setBaseRateOp27bCl($rf.getRateFactorNumericValue());				
end

rule "NonFleet-Calc-OP27B-Premium-CL-DRFACTOR" extends "NonFleet-Calc-OP27B-CL-Premium-BASE"
	when
		$rf: RateFactor(rateFactorId str[endsWith] NonFleetAutoRateConstants.RFID_DRFACTOR && rateFactorNumericValue != null && rateFactorNumericValue > 0) from $covop27bcl.rateFactorsLink.rateFactors
	then
		$fact.setDrFactorOp27bCl($rf.getRateFactorNumericValue());				
end

rule "NonFleet-Calc-OP27B-Premium-CL-VRGFACTOR" extends "NonFleet-Calc-OP27B-CL-Premium-BASE"
	when
		$rf: RateFactor(rateFactorId str[endsWith] NonFleetAutoRateConstants.RFID_27BVRGFACTOR && rateFactorNumericValue != null) from $covop27bcl.rateFactorsLink.rateFactors
	then
		$fact.setVrgFactorOp27bCl($rf.getRateFactorNumericValue());	
		//System.out.println("checking for CL 27B VRG:" + $fact.getVrgFactorOp27bCl());
end

rule "NonFleet-Calc-OP27B-Premium-CL-DEDFACTOR" extends "NonFleet-Calc-OP27B-CL-Premium-BASE"
	when
		$rf: RateFactor(rateFactorId str[endsWith] NonFleetAutoRateConstants.RFID_DEDFACTOR && rateFactorNumericValue != null && rateFactorNumericValue > 0) from $covop27bcl.rateFactorsLink.rateFactors
	then
		$fact.setDedFactorOp27bCl($rf.getRateFactorNumericValue());
		//System.out.println("checking for CL 27B DR:" + $fact.getDedFactorOp27bCl());
end

rule "NonFleet-Calc-OP27B-Premium-CL-END" extends "NonFleet-Calc-OP27B-CL-Premium-BASE"
	when
	
	then
		$fact.setOp27bClPrem(
				calcPremiumByFactor(calcPremiumByFactor(calcPremiumByFactor($fact.getBaseRateOp27bCl() * $fact.getDrFactorOp27bCl(),1) * $fact.getVrgFactorOp27bCl(),1) 
				* $fact.getDedFactorOp27bCl(),1)) ;
		$covop27bcl.getRateFactorsLink().addRateFactor(new RateFactor(NonFleetAutoRateConstants.RFID_27BCLPREM, null, $fact.getOp27bClPrem()));
		
		/**
		System.out.println("===== 27B CL COVERAGE =====" +$covop27bcl.getCoverageCode());
		System.out.println("BaseRateOp27bCl:" + $fact.getBaseRateOp27bCl());
		System.out.println("27B CL DR:" + $fact.getDrFactorOp27bCl());
		System.out.println("27B CL Ded:" + $fact.getDedFactorOp27bCl());
		System.out.println("27B CL VRG:" + $fact.getVrgFactorOp27bCl());
		System.out.println("27B CL Cov Premium:" + $fact.getOp27bClPrem());**/
		
end