package com.echelon.rating.calc.nonfleet.auto

declare End27bPremCalcFactors 
		vehiclePK			: long
		endorsementCd		: String
		clPrem 				: double
		cmPrem		 		: double
		apPrem			 	: double
		spPrem			 	: double		
end

//limit to a list of endorsements
rule "NonFleet-Calc-OPCF27B-Premium-BEGIN" extends "NonFleet-Calc-OPCF27B-BASE"
	when
		not (End27bPremCalcFactors(endorsementCd == SpecialtyAutoConstants.SPEC_VEH_RISK_ENDORSEMENT_OPCF27B && vehiclePK == $veh.policyRiskPK))
	then
		//System.out.println("NonFleet-Calc-OPCF27B-Premium-BEGIN:"+$endr27b.getEndorsementCd());
	
		End27bPremCalcFactors fact = new End27bPremCalcFactors();
		fact.setVehiclePK($veh.getPolicyRiskPK());
		fact.setEndorsementCd(SpecialtyAutoConstants.SPEC_VEH_RISK_ENDORSEMENT_OPCF27B);
		fact.setClPrem(0);		
		fact.setCmPrem(0);				
		fact.setApPrem(0);			
		fact.setSpPrem(0);			
		insert(fact);
end

// variable $fact for the rules 
rule "NonFleet-Calc-OPCF27B-Premium-BASE" extends "NonFleet-Calc-OPCF27B-BASE"
	when
		$fact : End27bPremCalcFactors(endorsementCd == SpecialtyAutoConstants.SPEC_VEH_RISK_ENDORSEMENT_OPCF27B && vehiclePK == $veh.policyRiskPK)
	then
		//System.out.println("NonFleet-Calc-OPCF27B-Premium-BASE:"+$endr27b.getEndorsementCd());
end

rule "NonFleet-Calc-OPCF27B-Premium-CLPREM" extends "NonFleet-Calc-OPCF27B-Premium-BASE"
	when
		$rf: RateFactor(rateFactorId str[endsWith] SpecialtyAutoConstants.RFID_CLPREM_NOSURCH && rateFactorNumericValue != null) from $endr27b.rateFactorsLink.rateFactors
	then
		$fact.setClPrem($rf.getRateFactorNumericValue());	
		//System.out.println("CL Prem:" + $fact.getClPrem());
end

rule "NonFleet-Calc-OPCF27B-Premium-CMPREM" extends "NonFleet-Calc-OPCF27B-Premium-BASE"
	when
		$rf: RateFactor(rateFactorId str[endsWith] SpecialtyAutoConstants.RFID_CMPREM && rateFactorNumericValue != null) from $endr27b.rateFactorsLink.rateFactors
	then
		$fact.setCmPrem($rf.getRateFactorNumericValue());
		//System.out.println("CM Prem:" + $fact.getCmPrem());
end

rule "NonFleet-Calc-OPCF27B-Premium-APPREM" extends "NonFleet-Calc-OPCF27B-Premium-BASE"
	when
		$rf: RateFactor(rateFactorId str[endsWith] SpecialtyAutoConstants.RFID_APPREM_NOSURCH && rateFactorNumericValue != null) from $endr27b.rateFactorsLink.rateFactors
	then
		$fact.setApPrem($rf.getRateFactorNumericValue());
		//System.out.println("AP Prem:" + $fact.getApPrem());	
end

rule "NonFleet-Calc-OPCF27B-Premium-SPPREM" extends "NonFleet-Calc-OPCF27B-Premium-BASE"
	when
		$rf: RateFactor(rateFactorId str[endsWith] SpecialtyAutoConstants.RFID_SPPREM && rateFactorNumericValue != null) from $endr27b.rateFactorsLink.rateFactors
	then
		$fact.setSpPrem($rf.getRateFactorNumericValue());	
		//System.out.println("SP Prem:" + $fact.getSpPrem());
end

rule "NonFleet-Calc-OPCF27B-Premium-END" extends "NonFleet-Calc-OPCF27B-Premium-BASE"
	when
	
	then

		$endr27b.getEndorsementPremium().setOriginalPremium(
				calcPremiumByFactor($fact.getClPrem() + $fact.getCmPrem() + $fact.getApPrem() + $fact.getSpPrem() , 1)
				);		

		
		System.out.println("===== ENDORSEMENT =====" +$endr27b.getEndorsementCd());
		System.out.println("CL:" + $fact.getClPrem());		
		System.out.println("CM:" + $fact.getCmPrem());		
		System.out.println("AP:" + $fact.getApPrem());
		System.out.println("SP:" + $fact.getSpPrem()); 	
		System.out.println("End Premium:" + $endr27b.getEndorsementPremium().getOriginalPremium());

end