package com.echelon.rating.calc.nonfleet.auto

// Collision CL for 27B //

declare Op27bCmPremCalcFactors 
		vehiclePK			: long
		vehicleClass		: long
		coverageCode		: String
		baseRateOp27bCm		: double
		drFactorOp27bCm  	: double
		vrgFactorOp27bCm   	: double
		dedFactorOp27bCm   	: double
		op27bCmPrem			: double
end

rule "NonFleet-Calc-OP27B-CM-Premium-BEGIN" extends "NonFleet-OP27B-CM-Calc-COVERAGE-BASE"
	when
		(not Op27bCmPremCalcFactors(coverageCode == NonFleetAutoRateConstants.COVERAGE_CODE_27BCM && vehiclePK == $veh.policyRiskPK))
	then
		Op27bCmPremCalcFactors fact = new Op27bCmPremCalcFactors();
		fact.setVehiclePK($veh.getPolicyRiskPK());
		fact.setCoverageCode(NonFleetAutoRateConstants.COVERAGE_CODE_27BCM);
		fact.setBaseRateOp27bCm(0);
		fact.setDrFactorOp27bCm(1);		
		fact.setVrgFactorOp27bCm(1);
		fact.setDedFactorOp27bCm(1);
		fact.setOp27bCmPrem(0);			
		insert(fact);
end

//variable $fact for the rules 
rule "NonFleet-Calc-OP27B-CM-Premium-BASE" extends "NonFleet-OP27B-CM-Calc-COVERAGE-BASE"
	when
		$fact : Op27bCmPremCalcFactors(coverageCode == NonFleetAutoRateConstants.COVERAGE_CODE_27BCM && vehiclePK == $veh.policyRiskPK)
	then

end

rule "NonFleet-Calc-OP27B-Premium-CM-BASERATE" extends "NonFleet-Calc-OP27B-CM-Premium-BASE"
	when
		$rf: RateFactor(rateFactorId str[endsWith] NonFleetAutoRateConstants.RFID_BASERATE && rateFactorNumericValue != null && rateFactorNumericValue > 0) from $covop27bcm.rateFactorsLink.rateFactors
	then
		$fact.setBaseRateOp27bCm($rf.getRateFactorNumericValue());				
end

rule "NonFleet-Calc-OP27B-Premium-CM-VRGFACTOR" extends "NonFleet-Calc-OP27B-CM-Premium-BASE"
	when
		$rf: RateFactor(rateFactorId str[endsWith] NonFleetAutoRateConstants.RFID_27BVRGFACTOR && rateFactorNumericValue != null) from $covop27bcm.rateFactorsLink.rateFactors
	then
		$fact.setVrgFactorOp27bCm($rf.getRateFactorNumericValue());		
		//System.out.println("checking for CM 27B VRG:" + $fact.getVrgFactorOp27bCm());		
end

rule "NonFleet-Calc-OP27B-Premium-CM-DEDFACTOR" extends "NonFleet-Calc-OP27B-CM-Premium-BASE"
	when
		$rf: RateFactor(rateFactorId str[endsWith] NonFleetAutoRateConstants.RFID_DEDFACTOR && rateFactorNumericValue != null && rateFactorNumericValue > 0) from $covop27bcm.rateFactorsLink.rateFactors
	then
		$fact.setDedFactorOp27bCm($rf.getRateFactorNumericValue());		
		//System.out.println("checking for CM 27B Ded:" + $fact.getDedFactorOp27bCm());		
end

rule "NonFleet-Calc-OP27B-Premium-CM-END" extends "NonFleet-Calc-OP27B-CM-Premium-BASE"
	when
	
	then
			
		$fact.setOp27bCmPrem(calcPremiumByFactor(calcPremiumByFactor($fact.getBaseRateOp27bCm() * $fact.getVrgFactorOp27bCm(),1) * $fact.getDedFactorOp27bCm(),1)) ;
		
		$covop27bcm.getRateFactorsLink().addRateFactor(new RateFactor(NonFleetAutoRateConstants.RFID_27BCMPREM, null, $fact.getOp27bCmPrem()));
		
		/**System.out.println("===== 27B CM COVERAGE =====" +$covop27bcm.getCoverageCode());
		System.out.println("BaseRateOp27bCm:" + $fact.getBaseRateOp27bCm());
		System.out.println("27B CM Ded:" + $fact.getDedFactorOp27bCm());
		System.out.println("27B CM VRG:" + $fact.getVrgFactorOp27bCm());
		System.out.println("27B CM Cov Premium:" + $fact.getOp27bCmPrem());**/
end