package com.echelon.rating.calc.nonfleet.auto

declare End48PremCalcFactors 
		vehiclePK			: long
		endorsementCd		: String
		biPrem				: double
		end48CommFactor 	: double
end

//limit to a list of endorsements
rule "NonFleet-Calc-OPCF48-Premium-BEGIN" extends "NonFleet-Calc-OPCF48-BASE"
	when
		not (End48PremCalcFactors(endorsementCd == SpecialtyAutoConstants.SPEC_VEH_RISK_ENDORSEMENT_OPCF48 && vehiclePK == $veh.policyRiskPK))
	then
		//System.out.println("NonFleet-Calc-OPCF48-Premium-BEGIN:"+$endr48.getEndorsementCd());
		End48PremCalcFactors fact = new End48PremCalcFactors();
		fact.setVehiclePK($veh.getPolicyRiskPK());
		fact.setEndorsementCd(SpecialtyAutoConstants.SPEC_VEH_RISK_ENDORSEMENT_OPCF48);
		fact.setBiPrem(1);
		fact.setEnd48CommFactor(1);
		insert(fact);
end

// variable $fact for the rules 
rule "NonFleet-Calc-OPCF48-Premium-BASE" extends "NonFleet-Calc-OPCF48-BASE"
	when
		$fact : End48PremCalcFactors(endorsementCd == SpecialtyAutoConstants.SPEC_VEH_RISK_ENDORSEMENT_OPCF48 && vehiclePK == $veh.policyRiskPK)
	then
		//System.out.println("NonFleet-Calc-OPCF48-Premium-BASE:"+$endr48.getEndorsementCd());
end

rule "NonFleet-Calc-OPCF48-Premium-BIPREM" extends "NonFleet-Calc-OPCF48-Premium-BASE"
	when
		$rf: RateFactor(rateFactorId str[endsWith] SpecialtyAutoConstants.RFID_BIPREM_NOSURCH && rateFactorNumericValue != null) from $endr48.rateFactorsLink.rateFactors
	then
		$fact.setBiPrem($rf.getRateFactorNumericValue());	 
end

/**
rule "NonFleet-Calc-OPCF48-Premium-COMMISSION_FACTOR" extends "NonFleet-Calc-OPCF48-Premium-BASE"
	when
		$rf: RateFactor(rateFactorId str[endsWith] NonFleetAutoRateConstants.RFID_COMMISSION_FACTOR && rateFactorNumericValue != null && rateFactorNumericValue > 0) from $endr48.rateFactorsLink.rateFactors
	then
		$fact.setEnd48CommFactor($rf.getRateFactorNumericValue());	 
end
**/

rule "NonFleet-Calc-OPCF48-Premium-END" extends "NonFleet-Calc-OPCF48-Premium-BASE"
	when
	
	then

		$endr48.getEndorsementPremium().setOriginalPremium(
				calcPremiumByFactor( $fact.getBiPrem() * 0.061,1)
				);		

		/**
		System.out.println("===== ENDORSEMENT =====" +$endr48.getEndorsementCd());
		System.out.println("BIprem" + $fact.getBiPrem());		
		System.out.println("End Premium:" + $endr48.getEndorsementPremium().getOriginalPremium());**/		

end