package com.echelon.rating.calc.nonfleet.auto

// Collision CL uses trailers VRG //

declare TowClPremCalcFactors 
		vehiclePK			: long
		vehicleClass		: long
		coverageCode		: String
		baseRateTowCl		: double
		drFactorTowCl  		: double
		vrgFactorTowCl   	: double
		dedFactorTowCl   	: double
		vehTypeFactorTowCl	: double
		unitTypeFactorTowCl	: String		
end

rule "NonFleet-TOWINGVEH-Calc-CL-Premium-BEGIN" extends "NonFleet-TOWINGVEH-Calc-CL-COVERAGE-BASE"
	when
	
	then
		System.out.println("NonFleet-TOWINGVEH-Calc-CL-Premium-BEGIN:"+$covtowcl.getCoverageCode());
end

rule "NonFleet-TOWINGVEH-Calc-CL-Premium-init" extends "NonFleet-TOWINGVEH-Calc-CL-Premium-BEGIN"
	when
		(not TowClPremCalcFactors(coverageCode == $covtowcl.getCoverageCode && vehiclePK == $towVehcl.policyRiskPK))
	then
		TowClPremCalcFactors fact = new TowClPremCalcFactors();
		fact.setVehiclePK($towVehcl.getPolicyRiskPK());
		fact.setCoverageCode($covtowcl.getCoverageCode());
		fact.setBaseRateTowCl(0);
		fact.setDrFactorTowCl(1);		
		fact.setVrgFactorTowCl(1);
		fact.setDedFactorTowCl(1);
		fact.setVehTypeFactorTowCl(1);
		fact.setUnitTypeFactorTowCl(null);
		insert(fact);
end

//variable $fact for the rules 
rule "NonFleet-TOWINGVEH-Calc-CL-Premium-BASE" extends "NonFleet-TOWINGVEH-Calc-CL-COVERAGE-BASE"
	when
		$fact : TowClPremCalcFactors(coverageCode == $covtowcl.getCoverageCode && vehiclePK == $towVehcl.policyRiskPK)
	then

end

rule "NonFleet-TOWINGVEH-Calc-CL-Premium-BASERATE" extends "NonFleet-TOWINGVEH-Calc-CL-Premium-BASE"
	when
		$rf: RateFactor(rateFactorId str[endsWith] NonFleetAutoRateConstants.RFID_BASERATE && rateFactorNumericValue != null && rateFactorNumericValue > 0) from $covtowcl.rateFactorsLink.rateFactors
	then
		$fact.setBaseRateTowCl($rf.getRateFactorNumericValue());				
end

rule "NonFleet-TOWINGVEH-Calc-CL-Premium-DRFACTOR" extends "NonFleet-TOWINGVEH-Calc-CL-Premium-BASE"
	when
		$rf: RateFactor(rateFactorId str[endsWith] NonFleetAutoRateConstants.RFID_TOWDRFACTOR && rateFactorNumericValue != null && rateFactorNumericValue > 0) from $covtowcl.rateFactorsLink.rateFactors
	then
		$fact.setDrFactorTowCl($rf.getRateFactorNumericValue());				
end

rule "NonFleet-TOWINGVEH-Calc-CL-Premium-VRGFACTOR" extends "NonFleet-TOWINGVEH-Calc-CL-Premium-BASE"
	when
		$rf: RateFactor(rateFactorId str[endsWith] NonFleetAutoRateConstants.RFID_VRGFACTOR && rateFactorNumericValue != null) from $covtowcl.rateFactorsLink.rateFactors
	then
		$fact.setVrgFactorTowCl($rf.getRateFactorNumericValue());				
end

rule "NonFleet-TOWINGVEH-Calc-CL-Premium-DEDFACTOR" extends "NonFleet-TOWINGVEH-Calc-CL-Premium-BASE"
	when
		$rf: RateFactor(rateFactorId str[endsWith] NonFleetAutoRateConstants.RFID_DEDFACTOR && rateFactorNumericValue != null && rateFactorNumericValue > 0) from $covtowcl.rateFactorsLink.rateFactors
	then
		$fact.setDedFactorTowCl($rf.getRateFactorNumericValue());				
end

rule "NonFleet-TOWINGVEH-Calc-CL-Premium-VEHTYPEFACTOR" extends "NonFleet-TOWINGVEH-Calc-CL-Premium-BASE"
	when
		$rf: RateFactor(rateFactorId str[endsWith] NonFleetAutoRateConstants.RFID_VEHTYPEFACTOR && rateFactorNumericValue != null) from $covtowcl.rateFactorsLink.rateFactors
	then
		$fact.setVehTypeFactorTowCl($rf.getRateFactorNumericValue());
end

rule "NonFleet-TOWINGVEH-Calc-CL-Premium-UNITTYPEFACTOR" extends "NonFleet-TOWINGVEH-Calc-CL-Premium-BASE"
	when
		$rf: RateFactor(rateFactorId str[endsWith] SpecialtyAutoConstants.RFID_VEHICLEDESC && rateFactorStringValue != null) from $covtowcl.rateFactorsLink.rateFactors
	then
		$fact.setUnitTypeFactorTowCl($rf.getRateFactorStringValue());
end

rule "NonFleet-TOWINGVEH-Calc-CL-Premium-END" extends "NonFleet-TOWINGVEH-Calc-CL-Premium-BASE"
	when
	
	then
		if ("ET".equalsIgnoreCase($fact.getUnitTypeFactorTowCl())) {
			$covtowcl.getCoveragePremium().setOriginalPremium(
					calcPremiumByFactor(calcPremiumByFactor(calcPremiumByFactor(calcPremiumByFactor($fact.getBaseRateTowCl() * $fact.getDrFactorTowCl(),1) * $fact.getVrgFactorTowCl(),1) 
					* $fact.getDedFactorTowCl(),1) * $fact.getVehTypeFactorTowCl() * 0.5,1));

		}
		else {
			$covtowcl.getCoveragePremium().setOriginalPremium(
					calcPremiumByFactor(calcPremiumByFactor(calcPremiumByFactor(calcPremiumByFactor($fact.getBaseRateTowCl() * $fact.getDrFactorTowCl(),1) * $fact.getVrgFactorTowCl(),1) 
					* $fact.getDedFactorTowCl(),1) * $fact.getVehTypeFactorTowCl(),1));
			
		}

		System.out.println("===== COVERAGE =====" +$covtowcl.getCoverageCode());
		System.out.println("BaseRateTowCl:" + $fact.getBaseRateTowCl());
		System.out.println("Cov Premium:" + $covtowcl.getCoveragePremium().getOriginalPremium());
		System.out.println("DR:" + $fact.getDrFactorTowCl());
		System.out.println("Ded:" + $fact.getDedFactorTowCl());
		System.out.println("VRG:" + $fact.getVrgFactorTowCl());
		System.out.println("Veh Type:" + $fact.getVehTypeFactorTowCl());
		System.out.println("Unit Type:" + $fact.getUnitTypeFactorTowCl());
		
end