package com.echelon.rating.calc.nonfleet.auto

import com.ds.ins.domain.policy.Coverage
import com.ds.ins.domain.policy.Endorsement
import com.ds.ins.domain.policy.RateFactor
import com.ds.ins.domain.policy.PolicyTerm
import com.ds.ins.domain.policy.PolicyTransaction
import com.echelon.domain.policy.specialtylines.SpecialtyVehicleRisk
import com.echelon.domain.policy.specialtylines.SpecialityAutoSubPolicy
import com.echelon.domain.policy.specialtylines.CGLSubPolicy
import com.ds.ins.domain.policy.wheels.Driver
import com.echelon.domain.policy.specialtylines.VehicleDriver

import com.echelon.rating.nonfleet.auto.NonFleetAutoRateConstants
//import com.echelon.rating.lht.cgl.LHTCGLRateConstants

import com.echelon.utils.SpecialtyAutoConstants
import com.echelon.rating.PolicyRatingHelper
import com.echelon.rating.dto.TowingVehicleDTO
import com.echelon.rating.nonfleet.NonFleetPolicyRatingHelperFactory

function Double calcPremiumByFactor(double premium, double factor) {
	//return PolicyRatingHelper.getInstance().calcPremium(premium, factor);
	return NonFleetPolicyRatingHelperFactory.getInstance().getPolicyRatingHelper().calcPremium(premium, factor);
}

rule "NonFleet-ANYVEH-Calc-BASE"
	when
		// For Any type of vehicle
		//$veh : SpecialtyVehicleRisk()
		$tvdto : TowingVehicleDTO()
		$veh   : SpecialtyVehicleRisk() from $tvdto.calcAnyVehicle
	then
			
end

rule "NonFleet-NONTOWINGVEH-Calc-BASE"
	when
		// For Non Towing Vehicle
		//$veh : SpecialtyVehicleRisk(towingVehiclePK == null)
		$tvdto : TowingVehicleDTO()
		$veh   : SpecialtyVehicleRisk() from $tvdto.calcNonTowingVehicle
	then
			
end

rule "NonFleet-TOWINGVEH-Calc-BASE"
	when
		// For Towing Vehicle  
		// $veh : SpecialtyVehicleRisk(towingVehiclePK != null)
		$tvdto : TowingVehicleDTO()
		$veh   : SpecialtyVehicleRisk() from $tvdto.calcTowingVehicle
	then
		
end