package com.echelon.rating.calc.nonfleet.auto

declare TowPremCalcFactors 
		vehiclePK			: long
		vehicleClass		: long
		coverageCode		: String
		baseRateTow 		: double
		limitFactorTow  	: double
		classFactorTow  	: double
		drFactorTow  	 	: double
		vehTypeFactorTow	: double
		unitTypeFactorTow	: String		
end

rule "NonFleet-TOWINGVEH-Calc-BI-Premium-BEGIN" extends "NonFleet-TOWINGVEH-Calc-BI-COVERAGE-BASE"
	when
	
	then
		System.out.println("NonFleet-TOWINGVEH-Calc-BI-Premium-BEGIN:"+$covtowbi.getCoverageCode());
end

rule "NonFleet-TOWINGVEH-Calc-BI-Premium-init" extends "NonFleet-TOWINGVEH-Calc-BI-Premium-BEGIN"
	when
		(not TowPremCalcFactors(coverageCode == $covtowbi.getCoverageCode && vehiclePK == $towVehbi.policyRiskPK))
	then
		TowPremCalcFactors fact = new TowPremCalcFactors();
		fact.setVehiclePK($towVehbi.getPolicyRiskPK());
		fact.setCoverageCode($covtowbi.getCoverageCode());
		fact.setBaseRateTow(0);
		fact.setLimitFactorTow(1);
		fact.setDrFactorTow(1);		
		fact.setClassFactorTow(1);
		fact.setVehTypeFactorTow(1);
		fact.setUnitTypeFactorTow(null);
		insert(fact);
end

//variable $fact for the rules 
rule "NonFleet-TOWINGVEH-Calc-BI-Premium-BASE" extends "NonFleet-TOWINGVEH-Calc-BI-COVERAGE-BASE"
	when
		$fact : TowPremCalcFactors(coverageCode == $covtowbi.getCoverageCode && vehiclePK == $towVehbi.policyRiskPK)
	then

end

rule "NonFleet-TOWINGVEH-Calc-BI-Premium-BASERATE" extends "NonFleet-TOWINGVEH-Calc-BI-Premium-BASE"
	when
		$rf: RateFactor(rateFactorId str[endsWith] NonFleetAutoRateConstants.RFID_BASERATE && rateFactorNumericValue != null && rateFactorNumericValue > 0) from $covtowbi.rateFactorsLink.rateFactors
	then
		$fact.setBaseRateTow($rf.getRateFactorNumericValue());				
end

rule "NonFleet-TOWINGVEH-Calc-BI-Premium-DRFACTOR" extends "NonFleet-TOWINGVEH-Calc-BI-Premium-BASE"
	when
		$rf: RateFactor(rateFactorId str[endsWith] NonFleetAutoRateConstants.RFID_TOWDRFACTOR && rateFactorNumericValue != null && rateFactorNumericValue > 0) from $covtowbi.rateFactorsLink.rateFactors
	then
		$fact.setDrFactorTow($rf.getRateFactorNumericValue());				
end

rule "NonFleet-TOWINGVEH-Calc-BI-Premium-LIMITFACTOR" extends "NonFleet-TOWINGVEH-Calc-BI-Premium-BASE"
	when
		$rf: RateFactor(rateFactorId str[endsWith] NonFleetAutoRateConstants.RFID_LIMITFACTOR && rateFactorNumericValue != null && rateFactorNumericValue > 0) from $covtowbi.rateFactorsLink.rateFactors
	then
		$fact.setLimitFactorTow($rf.getRateFactorNumericValue());				
end

rule "NonFleet-TOWINGVEH-Calc-BI-Premium-CLASSFACTOR" extends "NonFleet-TOWINGVEH-Calc-BI-Premium-BASE"
	when
		$rf: RateFactor(rateFactorId str[endsWith] NonFleetAutoRateConstants.RFID_TOWCLASSFACTOR && rateFactorNumericValue != null) from $covtowbi.rateFactorsLink.rateFactors
	then
		$fact.setClassFactorTow($rf.getRateFactorNumericValue());				
end

rule "NonFleet-TOWINGVEH-Calc-BI-Premium-VEHTYPEFACTOR" extends "NonFleet-TOWINGVEH-Calc-BI-Premium-BASE"
	when
		$rf: RateFactor(rateFactorId str[endsWith] NonFleetAutoRateConstants.RFID_VEHTYPEFACTOR && rateFactorNumericValue != null) from $covtowbi.rateFactorsLink.rateFactors
	then
		$fact.setVehTypeFactorTow($rf.getRateFactorNumericValue());
end

rule "NonFleet-TOWINGVEH-Calc-BI-Premium-UNITTYPEFACTOR" extends "NonFleet-TOWINGVEH-Calc-BI-Premium-BASE"
	when
		$rf: RateFactor(rateFactorId str[endsWith] SpecialtyAutoConstants.RFID_VEHICLEDESC && rateFactorStringValue != null) from $covtowbi.rateFactorsLink.rateFactors
	then
		$fact.setUnitTypeFactorTow($rf.getRateFactorStringValue());
end

rule "NonFleet-TOWINGVEH-Calc-BI-Premium-END" extends "NonFleet-TOWINGVEH-Calc-BI-Premium-BASE"
	when
		
	then
	
		if ("ET".equalsIgnoreCase($fact.getUnitTypeFactorTow())) {
			$covtowbi.getCoveragePremium().setOriginalPremium(
					calcPremiumByFactor(calcPremiumByFactor(calcPremiumByFactor(calcPremiumByFactor($fact.getBaseRateTow() * $fact.getDrFactorTow(),1) * $fact.getLimitFactorTow(),1) 
					* $fact.getClassFactorTow(),1) * $fact.getVehTypeFactorTow()*0.5,1));
		}
		else {
			$covtowbi.getCoveragePremium().setOriginalPremium(
					calcPremiumByFactor(calcPremiumByFactor(calcPremiumByFactor(calcPremiumByFactor($fact.getBaseRateTow() * $fact.getDrFactorTow(),1) * $fact.getLimitFactorTow(),1) 
							* $fact.getClassFactorTow(),1) * $fact.getVehTypeFactorTow(),1));
		}

		
		System.out.println("BaseRateTow:" + $fact.getBaseRateTow());
		System.out.println("Cov Premium:" + $covtowbi.getCoveragePremium().getOriginalPremium());
		System.out.println("Limit:" + $fact.getLimitFactorTow());
		System.out.println("DR:" + $fact.getDrFactorTow());		
		System.out.println("Class:" + $fact.getClassFactorTow());
		System.out.println("Veh Type:" + $fact.getVehTypeFactorTow());
		System.out.println("UnitType:" + $fact.getUnitTypeFactorTow());
	
end