package com.ds.ins.services.validation.rules.towing

//If SPF 6 - (CoverageCd=SPF6TPL) is selected under CGL sub policy then the garage section cannot be selected.

rule "VR-TOW-COV-24" extends "VR-TOW-BASE"
	when
		$pt:    PolicyTransaction()
		$sp:    SubPolicy(subPolicyTypeCd == "CGL" && (isActive() || isPending())) from $pt.subPolicies
		$cov:   Coverage(coverageCode == "SPF6TPL" && (isActive() || isPending())) from $sp.coverageDetail.coverages
		SubPolicy(subPolicyTypeCd == "GAR" && (isActive() || isPending())) from $pt.subPolicies
	then
		ruleResult.addRule("VR-TOW-COV-24");
end
		