package com.ds.ins.services.validation.rules.towing

// If on OAP1 level OPCF 23A - Blanket (OPCF23ABL) is added 
// then OPCF 23A (OPCF23A) cannot be selected


rule "VR-TOW-COV-08" extends "VR-TOW-BASE"
	when
		$pt:     PolicyTransaction()
		$sp:     SubPolicy(subPolicyTypeCd == "AUTO" && (isActive() || isPending())) from $pt.subPolicies 
		$spend1: Endorsement(endorsementCd == "OPCF23ABL" && (isActive() || isPending())) from $sp.coverageDetail.endorsements
		$spend2: Endorsement(endorsementCd == "OPCF23A" && (isActive() || isPending())) from $sp.coverageDetail.endorsements
	then
		ruleResult.addRule("VR-TOW-COV-08");
end
