package com.ds.ins.services.validation.rules.towing

//When Fleetbasis=SCHD and endorsement code OPCF21B is selected display validation message

rule "VR-TOW-COV-17" extends "VR-TOW-BASE"
	when
		$pt:    PolicyTransaction()
		$sp:    SubPolicy(subPolicyTypeCd == "AUTO" && (isActive() || isPending())) from $pt.subPolicies
		$auto:  SpecialityAutoSubPolicy(fleetBasis == "SCHD", $fleetBasis: fleetBasis) from $sp
		$cov:   Endorsement(endorsementCd == "OPCF21B" && (isActive() || isPending())) from $auto.coverageDetail.endorsements
	then
		ruleResult.addRule("VR-TOW-COV-17");
end
