package com.ds.ins.services.validation.rules.towing

// Garage Total Premium cannot be zero

rule "VR-TOW-GAR-02" extends "VR-TOW-BASE"
	when
		$pt: PolicyTransaction()
		$sp: SubPolicy(subPolicyTypeCd == "GAR" && (isActive() || isPending())) from $pt.subPolicies 
		not Premium(writtenPremium != null && writtenPremium != 0) from $sp.subPolicyPremium
	then
		ruleResult.addRule("VR-TOW-GAR-02");
end
