package com.echelon.rating.calc.lht.auto

declare EndPremCalcFactors 
		vehiclePK			: long
		endorsementCd		: String
		endPremiumFactor 	: double
		endCommFactor 		: double
		endNumOfVehs		: double
		unitPremiumAutoEnd	: double		
end

function Double calcEndPremiumByFactor(double premium, double factor) {
	//return PolicyRatingHelper.getInstance().calcPremium(premium, factor);  
	return LHTPolicyRatingHelperFactory.getInstance().getPolicyRatingHelper().roundTo(premium, 0);
}

//limit to a list of endorsements
rule "LHT-Calc-End-Premium-BEGIN" extends "LHT-Calc-ENDORSEMENT-BASE"
	when
		not (EndPremCalcFactors(endorsementCd == $endr.getEndorsementCd && vehiclePK == $veh.policyRiskPK))
	then
		//System.out.println("LHT-Calc-End-Premium-BEGIN:"+$endr.getEndorsementCd());
	
		EndPremCalcFactors fact = new EndPremCalcFactors();
		fact.setVehiclePK($veh.getPolicyRiskPK());
		fact.setEndorsementCd($endr.getEndorsementCd());
		fact.setEndPremiumFactor(0);
		fact.setEndCommFactor(0);
		fact.setEndNumOfVehs(1);
		fact.setUnitPremiumAutoEnd(0);
		insert(fact);
end

// variable $fact for the rules 
rule "LHT-Calc-End-Premium-BASE" extends "LHT-Calc-ENDORSEMENT-BASE"
	when
		$fact : EndPremCalcFactors(endorsementCd == $endr.getEndorsementCd && vehiclePK == $veh.policyRiskPK)
	then
		//System.out.println("LHT-Calc-Premium-BASE:"+$endr.getEndorsementCd());
end

rule "LHT-Calc-End-Premium-ENDPREM" extends "LHT-Calc-End-Premium-BASE"
	when
		$rf: RateFactor(rateFactorId str[endsWith] LHTAutoRateConstants.RFID_ENDORSEMENTPREMIUM && rateFactorNumericValue != null && rateFactorNumericValue > 0) from $endr.rateFactorsLink.rateFactors
	then
		$fact.setEndPremiumFactor($rf.getRateFactorNumericValue());				
end

/**rule "LHT-Calc-End-Premium-OFFBALFACTOR" extends "LHT-Calc-End-Premium-BASE"
	when
		$rf: RateFactor(rateFactorId str[endsWith] LHTAutoRateConstants.RFID_OFFBALFACTOR_ENDR && rateFactorNumericValue != null && rateFactorNumericValue > 0) from $endr.rateFactorsLink.rateFactors
	then
		$fact.setEndOffBalFactor($rf.getRateFactorNumericValue());	 
end

rule "LHT-Calc-End-Premium-MODFACTOR" extends "LHT-Calc-End-Premium-BASE"
	when
		$rf: RateFactor(rateFactorId str[endsWith] LHTAutoRateConstants.RFID_MODIFICATION_FACTOR && rateFactorNumericValue != null && rateFactorNumericValue > 0) from $endr.rateFactorsLink.rateFactors
	then
		$fact.setEndModFactor($rf.getRateFactorNumericValue());	 
end**/

rule "LHT-Calc-End-Premium-COMMISSION_FACTOR" extends "LHT-Calc-End-Premium-BASE"
	when
		$rf: RateFactor(rateFactorId str[endsWith] LHTAutoRateConstants.RFID_COMMISSION_FACTOR && rateFactorNumericValue != null && rateFactorNumericValue > 0) from $endr.rateFactorsLink.rateFactors
	then
		$fact.setEndCommFactor($rf.getRateFactorNumericValue());	 
end

rule "LHT-Calc-End-Premium-NUM_OF_VEHICLES" extends "LHT-Calc-End-Premium-BASE"
	when
		$rf: RateFactor(rateFactorId str[endsWith] LHTAutoRateConstants.RFID_NUM_OF_VEHICLES && rateFactorNumericValue != null && rateFactorNumericValue > 0) from $endr.rateFactorsLink.rateFactors
	then
		$fact.setEndNumOfVehs($rf.getRateFactorNumericValue());	 
end

rule "LHT-Calc-End-Premium-END" extends "LHT-Calc-End-Premium-BASE"
	when
	
	then
	
	$fact.setUnitPremiumAutoEnd(calcEndPremiumByFactor($fact.getEndPremiumFactor() * $fact.getEndCommFactor(), 1));
	
	$endr.getEndorsementPremium().setUnitPremium($fact.getUnitPremiumAutoEnd());
	$endr.getEndorsementPremium().setOriginalPremium($fact.getUnitPremiumAutoEnd() * $fact.getEndNumOfVehs());
	
	/**	
	$endr.getEndorsementPremium().setOriginalPremium(
			calcEndPremiumByFactor($fact.getEndPremiumFactor() * $fact.getEndCommFactor() * $fact.getEndNumOfVehs(), 1)
			);**/		
		/**
	 	System.out.println("===== ENDORSEMENT =====" +$endr.getEndorsementCd());
		System.out.println("Base End Premium:" + $fact.getEndPremiumFactor());
		System.out.println("Comm:" + $fact.getEndCommFactor());
		System.out.println("NumOfVehs:" + $fact.getEndNumOfVehs());
		System.out.println("End Unit Premium:" + $endr.getEndorsementPremium().getUnitPremium());		
		System.out.println("End Premium:" + $endr.getEndorsementPremium().getOriginalPremium());**/  	
	
end