package com.echelon.rating.calc.lht.auto

import com.ds.ins.domain.policy.Coverage
import com.ds.ins.domain.policy.Endorsement
import com.ds.ins.domain.policy.RateFactor
import com.echelon.domain.policy.specialtylines.SpecialityAutoExpRating
import com.echelon.domain.policy.specialtylines.SpecialtyVehicleRisk
import com.echelon.domain.policy.specialtylines.CGLSubPolicy

import com.echelon.rating.lht.auto.LHTAutoRateConstants
import com.echelon.rating.lht.cgl.LHTCGLRateConstants

import com.echelon.utils.SpecialtyAutoConstants
import com.echelon.rating.PolicyRatingHelper
import com.echelon.rating.lht.LHTPolicyRatingHelperFactory

function Double calcPremiumByFactor(double premium, double factor) {
	//return PolicyRatingHelper.getInstance().calcPremium(premium, factor);  
	return LHTPolicyRatingHelperFactory.getInstance().getPolicyRatingHelper().roundTo(premium, 0);
}

function Double roundTo(double value, int decimals) {
	//return PolicyRatingHelper.getInstance().roundTo(value, decimals);
	return LHTPolicyRatingHelperFactory.getInstance().getPolicyRatingHelper().roundTo(value, decimals);
}

rule "LHT-Calc-BASE"
	when
	
	then
			
end
