package com.echelon.rating.calc.lht.cgl

declare CglEndPremCalcFactors 
		endorsementCd		: String
		cglEndPremiumFactor : double
		cglEndCommFactor 	: double
		cglEndPowerUnits	: double
		unitPremiumCglEnd	: double		
end

function Double calcCglEndPremiumByFactor(double premium, double factor) {
	//return PolicyRatingHelper.getInstance().calcPremium(premium, factor);  
	return LHTPolicyRatingHelperFactory.getInstance().getPolicyRatingHelper().roundTo(premium, 0);
}

//limit to a list of endorsements
rule "LHT-Calc-CGL-End-Premium-BEGIN" extends "LHT-Calc-CGL-ENDORSEMENT-BASE"
	when
		not (CglEndPremCalcFactors(endorsementCd == $cglendr.getEndorsementCd))
	then
		//System.out.println("LHT-Calc-CGL-End-Premium-BEGIN:"+$cglendr.getEndorsementCd());
	
		CglEndPremCalcFactors fact = new CglEndPremCalcFactors();
		fact.setEndorsementCd($cglendr.getEndorsementCd());
		fact.setCglEndPremiumFactor(0);
		fact.setCglEndCommFactor(0);
		fact.setCglEndPowerUnits(0);
		fact.setUnitPremiumCglEnd(0);
		insert(fact);
end

// variable $fact for the rules 
rule "LHT-Calc-CGL-End-Premium-BASE" extends "LHT-Calc-CGL-ENDORSEMENT-BASE"
	when
		$fact : CglEndPremCalcFactors(endorsementCd == $cglendr.getEndorsementCd)
	then

end

rule "LHT-Calc-CGL-End-Premium-ENDPREM" extends "LHT-Calc-CGL-End-Premium-BASE"
	when
		$rf: RateFactor(rateFactorId str[endsWith] LHTCGLRateConstants.RFID_SUBPOLENDPREMIUM && rateFactorNumericValue != null && rateFactorNumericValue > 0) from $cglendr.rateFactorsLink.rateFactors
	then
		$fact.setCglEndPremiumFactor($rf.getRateFactorNumericValue());	
		//System.out.println("Base End Premium:" + $fact.getCglEndPremiumFactor());
end

rule "LHT-Calc-CGL-End-Premium-COMMISSION_FACTOR" extends "LHT-Calc-CGL-End-Premium-BASE"
	when
		$rf: RateFactor(rateFactorId str[endsWith] LHTCGLRateConstants.RFID_COMMISSION_FACTOR && rateFactorNumericValue != null) from $cglendr.rateFactorsLink.rateFactors
	then
		$fact.setCglEndCommFactor($rf.getRateFactorNumericValue());	
		//System.out.println("Comm:" + $fact.getCglEndCommFactor());
end

rule "LHT-Calc-CGL-End-Premium-NUM_OF_VEHICLES" extends "LHT-Calc-CGL-End-Premium-BASE"
	when
		$rf: RateFactor(rateFactorId str[endsWith] LHTCGLRateConstants.RFID_CGL_POWERUNITS && rateFactorNumericValue != null) from $cglendr.rateFactorsLink.rateFactors
	then
		$fact.setCglEndPowerUnits($rf.getRateFactorNumericValue());	 
		//System.out.println("NumOfVehs:" + $fact.getCglEndPowerUnits());
end

rule "LHT-Calc-CGL-End-Premium-END" extends "LHT-Calc-CGL-End-Premium-BASE"
	when
	
	then

	$fact.setUnitPremiumCglEnd(calcCglEndPremiumByFactor($fact.getCglEndPremiumFactor() * $fact.getCglEndCommFactor(), 1));
	
	$cglendr.getEndorsementPremium().setUnitPremium($fact.getUnitPremiumCglEnd());
	$cglendr.getEndorsementPremium().setOriginalPremium($fact.getUnitPremiumCglEnd() * $fact.getCglEndPowerUnits());

	//System.out.println("End Premium:" + $cglendr.getEndorsementPremium().getOriginalPremium());  	
	
end