package com.echelon.rating.calc.lht.auto

rule "LHT-Calc-COVERAGE-BASE" extends "LHT-Calc-BASE"
	when
	    $veh  : SpecialtyVehicleRisk()
		$cov  : Coverage(coverageCode == SpecialtyAutoConstants.SPEC_VEH_RISK_COV_CODE_BI 		||
							coverageCode == SpecialtyAutoConstants.SPEC_VEH_RISK_COV_CODE_PD 	||
							coverageCode == SpecialtyAutoConstants.SPEC_VEH_RISK_COV_CODE_DCPD 	||
							coverageCode == SpecialtyAutoConstants.SPEC_VEH_RISK_COV_CODE_AB 	||
							coverageCode == SpecialtyAutoConstants.SPEC_VEH_RISK_COV_CODE_UA 	||
							coverageCode == SpecialtyAutoConstants.SPEC_VEH_RISK_COV_CODE_CL 	||
							coverageCode == SpecialtyAutoConstants.SPEC_VEH_RISK_COV_CODE_CM 	||
							coverageCode == SpecialtyAutoConstants.SPEC_VEH_RISK_COV_CODE_AP 	||
							coverageCode == SpecialtyAutoConstants.SPEC_VEH_RISK_COV_CODE_SP
						 )
	then
		//System.out.println("LHT-Calc-COVERAGE-BASE:"+$cov.getCoverageCode());
end

rule "LHT-Calc-ENDORSEMENT-BASE" extends "LHT-Calc-BASE"
	when
	    $veh   : SpecialtyVehicleRisk()
		$endr  : Endorsement(endorsementCd == SpecialtyAutoConstants.SPEC_VEH_RISK_ENDORSEMENT_OPCF20 	||
							endorsementCd == SpecialtyAutoConstants.SPEC_VEH_RISK_ENDORSEMENT_OPCF27 	||
							endorsementCd == SpecialtyAutoConstants.SPEC_VEH_RISK_ENDORSEMENT_OPCF43 	||
							endorsementCd == SpecialtyAutoConstants.SPEC_VEH_RISK_ENDORSEMENT_OPCF44R 	||
							endorsementCd == SpecialtyAutoConstants.SPEC_VEH_RISK_ENDORSEMENT_OPCF43A 	||
							endorsementCd == SpecialtyAutoConstants.SPEC_VEH_RISK_ENDORSEMENT_EON20A 	
						 )		
	then
		//System.out.println("LHT-Calc-ENDORSEMENT-BASE:"+$endr.getEndorsementCd());	
end

rule "LHT-Calc-OPCF38-BASE" extends "LHT-Calc-BASE"
	when
	    $veh  	: SpecialtyVehicleRisk()
		$endr38 : Endorsement(endorsementCd == SpecialtyAutoConstants.SPEC_VEH_RISK_ENDORSEMENT_OPCF38)		
	then
		//System.out.println("LHT-Calc-OPCF38-BASE:"+$endr38.getEndorsementCd());	
	end

/**
rule "LHT-Calc-OPCF27B-BASE" extends "LHT-Calc-BASE"
	when
	    $veh  	: SpecialtyVehicleRisk()
		$endr27b : Endorsement(endorsementCd == SpecialtyAutoConstants.SPEC_VEH_RISK_ENDORSEMENT_OPCF27B)		
	then
		//System.out.println("LHT-Calc-OPCF27B-BASE:"+$endr27b.getEndorsementCd());	
	end
**/
	
rule "LHT-Calc-OPCF48-BASE" extends "LHT-Calc-BASE"
	when
	    $veh  	: SpecialtyVehicleRisk()
		$endr48 : Endorsement(endorsementCd == SpecialtyAutoConstants.SPEC_VEH_RISK_ENDORSEMENT_OPCF48)		
	then
		//System.out.println("LHT-Calc-OPCF48-BASE:"+$endr48.getEndorsementCd());	
	end	