package com.ds.ins.services.validation.rules.towingnonfleet

// cargodetails.CargoDescription should be "Customer Personal Effects"

rule "VR-NF-CAR-02" extends "VR-NF-BASE"
	when
		$pt: PolicyTransaction()
		$sp: SubPolicy(subPolicyTypeCd == "CGO" && (isActive() || isPending())) from $pt.subPolicies 
		$car: CargoSubPolicy() from $sp
		not (CargoDetails(cargoDescription == "Customers' Personal Effects") from $car.cargoDetails)
	then
		ruleResult.addRule("VR-NF-CAR-02");
end
