package com.ds.ins.services.validation.rules.towingnonfleet
// If lessor is added for OAP1, then OPCF5 should be added as well

rule "VR-NF-COV-04" extends "VR-NF-BASE"
	when
		$pt:    PolicyTransaction()
		$sp:    SubPolicy(subPolicyTypeCd == "AUTO" && (isActive() || isPending())) from $pt.subPolicies 
	    LienholderLessorSubPolicy(lienLessorType == "LESSOR" && (isActive() || isPending())) from $sp.lienholderLessors
	    not (Endorsement(endorsementCd == "OPCF5" && (isActive() || isPending())) from $sp.coverageDetail.endorsements)
	then
		ruleResult.addRule("VR-NF-COV-04");
end
