package com.ds.ins.services.validation.rules.towingnonfleet

// There must be at least one driver on the policy

rule "VR-NF-DRV-01" extends "VR-NF-BASE"
	when
		$pt: PolicyTransaction()
		$drvs: ArrayList() from collect (Driver(isActive() || isPending()) from $pt.drivers)
		eval($drvs.size() < 1) 
	then
		ruleResult.addRule("VR-NF-DRV-01");
end
