package com.ds.ins.services.validation.rules.towingnonfleet

// If SPF 6 - Third Party Liability (CoverageCd=SPF6TPL) is selected under CGL sub policy 
// then endorsements SEF 96 (endorsementCd=SEF96) 
//  and SEF 99 (endorsementCd=SEF99) have to be selected.
 
rule "VR-NF-COV-11bse" extends "VR-NF-BASE"
	when
		$pt:  PolicyTransaction()
		$sp:  SubPolicy(subPolicyTypeCd == "CGL" && (isActive() || isPending())) from $pt.subPolicies 
		Coverage(coverageCode == "SPF6TPL" && (isActive() || isPending())) from $sp.coverageDetail.coverages
	then
		
end

rule "VR-NF-COV-11a" extends "VR-NF-COV-11bse"
	when
		not Endorsement(endorsementCd == "SEF96" && (isActive() || isPending())) from $sp.coverageDetail.endorsements
	then
		ruleResult.addRule("VR-NF-COV-11");
end

rule "VR-NF-COV-11b" extends "VR-NF-COV-11bse"
	when
		not Endorsement(endorsementCd == "SEF99" && (isActive() || isPending())) from $sp.coverageDetail.endorsements
	then
		ruleResult.addRule("VR-NF-COV-11");
end
