package com.ds.ins.services.validation.rules.towingnonfleet
// If lienholder is added for OAP1, then OPC23A should be added as well

rule "VR-NF-COV-05" extends "VR-NF-BASE"
	when
		$pt:    PolicyTransaction()
		$sp:    SubPolicy(subPolicyTypeCd == "AUTO" && (isActive() || isPending())) from $pt.subPolicies 
	    LienholderLessorSubPolicy(lienLessorType == "LIENHOLDER" && (isActive() || isPending())) from $sp.lienholderLessors
	    not (Endorsement(endorsementCd == "OPCF23A" && (isActive() || isPending())) from $sp.coverageDetail.endorsements)
	then
		ruleResult.addRule("VR-NF-COV-05");
end
