package com.ds.ins.services.validation.rules.towingnonfleet

// Required-All drivers should be assigned to a vehicle

rule "VR-NF-DRV-02-init" extends "VR-NF-BASE"
	when
		$pt:     PolicyTransaction()
		$drvs:   Set() from accumulate (
						Driver(isActive() || isPending(), $a: personPk) from $pt.drivers,
						collectSet( $a )
						)
		$sp:     SubPolicy(subPolicyTypeCd == "AUTO" && (isActive() || isPending())) from $pt.subPolicies 
		$vehdrvs: 
				Set() from accumulate (
			        SpecialtyVehicleRisk(isActive() || isPending(), $a: vehicleDrivers) from $sp.subPolicyRisks,
			       	init( Set set = new HashSet(); ),
       				action( set.addAll( $a ); ),
       				result( set ) 
			     )
		$vdrvs:
			   Set() from accumulate (
					VehicleDriver(isActive() || isPending(), $a: driver.personPk) from $vehdrvs,
					collectSet( $a )
				)
		$res: ArrayList() from collect (Long(this not memberOf $vdrvs) from $drvs)
	then
		//System.out.println("--------------"+$drvs.size());
		//$drvs.forEach(System.out::println);
		//System.out.println("=============="+$vehdrvs.size()+"/"+$vdrvs.size());
		//$vdrvs.forEach(System.out::println);
		//System.out.println("--------------"+$res.size());
end

rule "VR-NF-DRV-02" extends "VR-NF-DRV-02-init"
	when
		eval($res.size() > 0) 
	then
		ruleResult.addRule("VR-NF-DRV-02");
end
