package com.ds.ins.services.validation.rules.towingnonfleet

// If coverage 6.4 - Specified Perils (CoverageCd=SP64) is selected under Garage sub policy 
// then endorsement EOF 77 (endorsementCode=EOF77) has to be selected.

rule "VR-NF-COV-12" extends "VR-NF-BASE"
	when
		$pt:  PolicyTransaction()
		$sp:  SubPolicy(subPolicyTypeCd == "GAR" && (isActive() || isPending())) from $pt.subPolicies 
		Coverage(coverageCode == "SP64" && (isActive() || isPending())) from $sp.coverageDetail.coverages
		not (Endorsement(endorsementCd == "OEF77" && (isActive() || isPending())) from $sp.coverageDetail.endorsements)
	then
		ruleResult.addRule("VR-NF-COV-12");
end
