package com.ds.ins.services.validation.rules.trucking

global com.ds.ins.services.validation.DSRuleResult ruleResult

import java.util.Set
import java.util.HashSet
import java.util.ArrayList

import java.time.LocalDate

import com.ds.ins.domain.policy.PolicyTransaction
import com.ds.ins.domain.policy.PolicyVersion
import com.ds.ins.domain.policy.PolicyTerm
import com.ds.ins.domain.policy.InsurancePolicy
import com.ds.ins.domain.policy.SubPolicy
import com.ds.ins.domain.policy.Risk
import com.ds.ins.domain.policy.Coverage
import com.ds.ins.domain.policy.Endorsement
import com.ds.ins.domain.policy.LienholderLessor
import com.ds.ins.domain.policy.LienholderLessorSubPolicy
import com.ds.ins.domain.policy.Premium

import com.ds.ins.domain.entities.DataExtension
import com.ds.ins.domain.entities.ExtensionType
import com.ds.ins.domain.entities.ExtensionData

import com.daybreak.domain.policy.specialtylines.SpecialityAutoSubPolicy
import com.daybreak.domain.policy.specialtylines.CGLSubPolicy
import com.daybreak.domain.policy.specialtylines.CargoSubPolicy
import com.daybreak.domain.policy.specialtylines.GarageSubPolicy
import com.daybreak.domain.policy.specialtylines.CargoDetails
import com.daybreak.domain.policy.specialtylines.SpecialtyVehicleRisk
import com.daybreak.domain.policy.specialtylines.AdditionalInsuredVehicles

import com.daybreak.prodconf.ConfigConstants

rule "VR-TR-BASE"
	when
	
	then
	
end