//created on: 6-Oct-2020
package RateConfig.Towing.v1

//list any import classes here.
import java.util.Set
import java.util.ArrayList

import com.ds.ins.domain.policy.PolicyTransaction
import com.ds.ins.domain.policy.PolicyVersion
import com.ds.ins.domain.policy.InsurancePolicy
import com.ds.ins.domain.policy.SubPolicy
import com.ds.ins.domain.policy.Risk
import com.ds.ins.domain.policy.Coverage
import com.ds.ins.domain.policy.Endorsement
import com.ds.ins.domain.policy.LienholderLessor
import com.ds.ins.domain.policy.LienholderLessorSubPolicy
import com.ds.ins.domain.policy.Premium
import com.ds.ins.domain.policy.PolicyCoverage

import com.echelon.domain.policy.specialtylines.SpecialityAutoSubPolicy
import com.echelon.domain.policy.specialtylines.CGLSubPolicy
import com.echelon.domain.policy.specialtylines.CargoSubPolicy
import com.echelon.domain.policy.specialtylines.GarageSubPolicy
import com.echelon.domain.policy.specialtylines.CargoDetails
import com.echelon.domain.policy.specialtylines.SpecialtyVehicleRisk
import com.echelon.domain.policy.specialtylines.AdditionalInsuredVehicles

rule "BIPremimCalc"

    when
		$cov : PolicyCoverage (coverageCode == "BI")

    then
        // premium= base_calc * limit_calc * ded_calc * class_calc * vrg_calc * trailer_calc
        $cov.getCoveragePremium().setOriginalPremium(new Double(1000));
        System.out.println("Premium:" + $cov.getCoveragePremium().getOriginalPremium());
end
