{
	"rateBookCd" : "ONTowing",
	"versions" : [
		{
			"versionNum" : 1,
			"newBusinessEffDate" : "2020-01-01T00:00:00.00Z",
			"newBusinessExpDate" : "2020-01-01T00:00:00.00Z",
			"renewalEffDate" : "2999-01-01T00:00:00:00.00Z",
			"renewalExpDate" : "2999-01-01T00:00:00:00.00Z",
			"status" : "ACTIVE",
			"processClass" : "com.daystar.rating.demo.demorateprocess-v1",
			"decisionTables" : [
				{
					"baseRates" : "TowingBaseRates-v1.xls",
					"limitFactors" : "TowingLimits-v1.xls",
					"deductibleFactors" : "TowingDedctible-v1.xls",
					"classFactors" : "TowingClass-v1.xls",
					"drFactors" : "TowingDrs-v1.xls",	
					"vrgFactors" : "TowingVrgs-v1.xls",
					"trailerFactors" : "TowingTrailer-v1.xls"									
				}
			],
			"ratingcalcs" : [
				{
					"calcCd" : "BI",
					"description" : "BI",
					"ruleid" : "bicalc-v1"	
				},
				{
					"calcCd" : "PD",
					"description" : "PD",
					"ruleid" : "pdcalc-v1"	
				},
				{
					"calcCd" : "DC",
					"description" : "DC",
					"ruleid" : "dccalc-v1"	
				},
				{
					"calcCd" : "AB",
					"description" : "AB",
					"ruleid" : "abcalc-v1"	
				},
				{
					"calcCd" : "UA",
					"description" : "UA",
					"ruleid" : "uacalc-v1"	
				},
				{
					"calcCd" : "CL",
					"description" : "CL",
					"ruleid" : "clcalc-v1"	
				},
				{
					"calcCd" : "CM",
					"description" : "CM",
					"ruleid" : "cmcalc-v1"	
				}
			]
			 
		}
	]
}
