[
	{
	"itemKey":"INSREQ",
	"itemValue":"Insured's request"
	},
	{
	"itemKey":"MISREP",
	"itemValue":"Misrepresentation / non-disclosure"
	},
	{
	"itemKey":"NONPAY",
	"itemValue":"Non-payment"
	},
	{
	"itemKey":"MATCHG",
	"itemValue":"Material change in operations"
	},
	{
	"itemKey":"NOINFO",
	"itemValue":"Insufficient information provided"
	},	
	{
	"itemKey":"OTH",
	"itemValue":"Other - see policy notes"
	}		
]