CM,TT,WT
CM,MTT,WT
CM,LTT,WT
CM,HTT,WT
IU,TT,WT
IU,MTT,WT
IU,LTT,WT
IU,HTT,WT
CM,LC,WT
CM,HC,WT
CM,SHT,WT
CM,TRC,WT
CM,ST,WT
CM,TR,CA
CM,TR,NC
CM,TR,CD
CM,TR,OT
CM,ET,CA
CM,ET,NC
CM,ET,CD
CM,ET,OT
IU,TRC,WT
IU,ST,WT
IU,TR,CA
IU,TR,NC
IU,TR,CD
IU,TR,OT
IU,ET,CA
IU,ET,NC
IU,ET,CD
IU,ET,OT
PP,PP,WT
PP,TR,CA
PP,TR,NC
PP,TR,OT
CM,DP,WT
CM,DP,CA
CM,DP,NC
CM,DP,CD
CM,DP,OT
IU,DP,WT
IU,DP,CA
IU,DP,NC
IU,DP,CD
IU,DP,OT
PP,DP,WT
PP,DP,CA
PP,DP,NC
PP,DP,OT
PP,ATV,WT
CM,OP27,WT
CM,OP27,CA
CM,OP27,NC
CM,OP27,OT
IU,OP27,WT
IU,OP27,CA
IU,OP27,NC
IU,OP27,OT