[
	{
	"itemKey":"CCO",
	"itemValue":"Common Carrier Only"
	},
	{
	"itemKey":"CCI",
	"itemValue":"Common Carrier and Intermediaries in transport"
	},
	{
	"itemKey":"CCIW",
	"itemValue":"Common Carrier, Intermediaries in transport and warehousing"
	},
	{
	"itemKey":"CCIG",
	"itemValue":"Common Carrier, Intermediaries in transport and Garage"
	},
	{
	"itemKey":"CCIWG",
	"itemValue":"Common Carrier, Intermediaries in transport and warehousing and Garage"
	}	
]