[
 {
   "itemKey": "OPCF2",
   "itemValue": "Providing Coverage When Named Persons Drive Other Autos or Rent or Lease Other Autos"
 },
 {
   "itemKey": "OPCF4A",
   "itemValue": "Permission to Carry Explosives"
 },
 {
   "itemKey": "OPCF4B",
   "itemValue": "Permission to Carry Radioactive Materials"
 },
 {
   "itemKey": "OPCF5",
   "itemValue": "Permission to Rent or Lease Automobiles and Extending Coverage to the Specified Lessee(s)"
 },
 {
   "itemKey": "OPCF5BL",
   "itemValue": "Permission to Rent or Lease Automobiles and Extending Coverage to the Specified Lessee(s)"
 },
 {
   "itemKey": "OPCF5C",
   "itemValue": "Permission to rent or lease (short term leases only)"
 },
 {
   "itemKey": "OPCF8",
   "itemValue": "Property Damage Reimbursement"
 },
 {
   "itemKey": "OPCF9",
   "itemValue": "Marine Use Excluded"
 },
 {
   "itemKey": "OPCF13C",
   "itemValue": "Restricting Glass Coverage"
 },
 {
   "itemKey": "OPCF19",
   "itemValue": "Limiting the amount Paid for Loss or Damage Coverages"
 },
 {
   "itemKey": "OPCF20",
   "itemValue": "Coverage for Transportation Replacement - Private Passenger and Light Commercial units only"
 },
 {
   "itemKey": "OPCF20H",
   "itemValue": "Coverage for Transportation Replacement - Heavy utility motor vehicles (more than 4,500 kg), trailers / semi-trailers are excluded"
 },
 {
   "itemKey": "OPCF21A",
   "itemValue": "Monthly Reporting Basis Fleet Endorsement"
 },
 {
   "itemKey": "OPCF21B",
   "itemValue": "Blanket Fleet Coverage for Ontario Licensed Automobiles"
 },
 {
   "itemKey": "OPCF23A",
   "itemValue": "Lienholder Protection"
 },
 {
   "itemKey": "OPCF23ABL",
   "itemValue": "Lienholder Protection"
 },
 {
   "itemKey": "OPCF25AA",
   "itemValue": "Alteration"
 },
 {
   "itemKey": "OPCF27",
   "itemValue": "Liab. for Damage when Insured Persons Drive, Rent or Lease other Autos. Private Passenger Only"
 },
 {
   "itemKey": "OPCF27B",
   "itemValue": "Business Operations - Liability for Damage to Non-Owned Automobile(s) in Your Care, Custody or Control"  
 },
 {
   "itemKey": "OPCF28",
   "itemValue": "Reducing Coverage for Named Persons"
 },
 {
   "itemKey": "OPCF28A",
   "itemValue": "Excluded Driver"
 },
 {
   "itemKey": "OPCF30",
   "itemValue": "Excluding Operation for Attached Machinery"
 },
 {
   "itemKey": "OPCF31",
   "itemValue": "Non-Owned Equipment"
 },
 {
   "itemKey": "OPCF38",
   "itemValue": "Agreed limit for automobiles - electronic accessories"
 },
 {
   "itemKey": "OPCF40",
   "itemValue": "Fire Deductible"
 },
 {
   "itemKey": "OPCF43",
   "itemValue": "Removing Depreciation Deduction - Private Passenger and Light Commercial vehicles only (up to 4,500 kg) - 24 months - max 2,500 kms"
 },
 {
   "itemKey": "OPCF44R",
   "itemValue": "Private Passenger and Light Commercial vehicles only (up to 4,500 kg) - Maximum Limit $2,000,000"
 },
 {
   "itemKey": "OPCF47",
   "itemValue": "Agreement not to rely on SABS"
 },
 {
   "itemKey": "OPCF48",
   "itemValue": "Added coverage to offset tort deductibles"
 },
 {
   "itemKey": "EON101",
   "itemValue": "Blanket Lessors"
 },
 {
   "itemKey": "EON102",
   "itemValue": "Additional Named Insured"
 },
 {
   "itemKey": "EON109",
   "itemValue": "Insurable Interest deleted"
 },
 {
   "itemKey": "EON110",
   "itemValue": "Per Occurrence Deductible"
 },
 {
   "itemKey": "EON111",
   "itemValue": "Profit Sharing Endorsement"
 },
 {
   "itemKey": "EON114",
   "itemValue": "Named Insured"
 },
 {
   "itemKey": "EON121",
   "itemValue": "Policy Cancellation "
 },
 {
   "itemKey": "GECGL",
   "itemValue": "General Endorsement - Commercial General Liability"
 },
 {
   "itemKey": "GECGLMTC",
   "itemValue": "General Endorsement - Commercial General Liability and Motor Truck Cargo"
 },
 {
   "itemKey": "OEF71",
   "itemValue": "Excluding Owned Automobiles"
 },
 {
   "itemKey": "OEF72",
   "itemValue": "Multiple Alteration Endorsement"
 },
 {
   "itemKey": "OEF75",
   "itemValue": "Open Lot Theft - Customers' Automobiles"
 },
 {
   "itemKey": "OEF77",
   "itemValue": "Liability for Comprehensive Damage to a Customer's Auto (Including Open Lot Theft)"
 },
 {
   "itemKey": "EBE",
   "itemValue": "Employee Benefits Extension (QE2033N)"
 },
 {
   "itemKey": "GSPC",
   "itemValue": "Garage Service Plate Coverage"
 },
 {
   "itemKey": "GDPC",
   "itemValue": "Garage Dealer Plate Coverage"
 },
 {
   "itemKey": "SEF99",
   "itemValue": "Excluding Long Term Leased Vehicle"
 },
 {
   "itemKey": "GLEE",
   "itemValue": "Garage Liability Extension Endorsement"
 }
]