[
 {
   "itemKey": "OPCF2",
   "itemValue": "OPCF 2"
 },
 {
   "itemKey": "OPCF4A",
   "itemValue": "OPCF 4A"
 },
 {
   "itemKey": "OPCF4B",
   "itemValue": "OPCF 4B"
 },
 {
   "itemKey": "OPCF5",
   "itemValue": "OPCF 5"
 },
 {
   "itemKey": "OPCF5BL",
   "itemValue": "OPCF 5"
 },
 {
   "itemKey": "OPCF5C",
   "itemValue": "OPCF 5C"
 },
 {
   "itemKey": "OPCF8",
   "itemValue": "OPCF 8"
 },
 {
   "itemKey": "OPCF9",
   "itemValue": "OPCF 9"
 },
 {
   "itemKey": "OPCF13C",
   "itemValue": "OPCF 13C"
 },
 {
   "itemKey": "OPCF19",
   "itemValue": "OPCF 19"
 },
 {
   "itemKey": "OPCF20",
   "itemValue": "OPCF 20"
 },
 {
   "itemKey": "OPCF20H",
   "itemValue": "OPCF 20"
 },
 {
   "itemKey": "OPCF21A",
   "itemValue": "OPCF 21A"
 },
 {
   "itemKey": "OPCF21B",
   "itemValue": "OPCF 21B"
 },
 {
   "itemKey": "OPCF23A",
   "itemValue": "OPCF 23A"
 },
 {
   "itemKey": "OPCF23ABL",
   "itemValue": "OPCF 23A"
 },
 {
   "itemKey": "OPCF25A",
   "itemValue": "OPCF 25A"
 },
 {
   "itemKey": "OPCF25AA",
   "itemValue": "OPCF 25A"
 },
 {
   "itemKey": "OPCF25AW",
   "itemValue": "OPCF 25A"
 },
 {
   "itemKey": "OPCF25AR",
   "itemValue": "OPCF 25A"
 },
 {
   "itemKey": "OPCF27",
   "itemValue": "OPCF 27"
 },
 {
   "itemKey": "OPCF27B",
   "itemValue": "OPCF 27B"
 },
 {
   "itemKey": "OPCF28",
   "itemValue": "OPCF 28"
 },
 {
   "itemKey": "OPCF28A",
   "itemValue": "OPCF 28A"
 },
 {
   "itemKey": "OPCF30",
   "itemValue": "OPCF 30"
 },
 {
   "itemKey": "OPCF31",
   "itemValue": "OPCF 31"
 },
 {
   "itemKey": "OPCF38",
   "itemValue": "OPCF 38"
 },
 {
   "itemKey": "OPCF40",
   "itemValue": "OPCF 40"
 },
 {
   "itemKey": "OPCF43",
   "itemValue": "OPCF 43/43A"
 },
 {
   "itemKey": "OPCF44R",
   "itemValue": "OPCF 44R"
 },
 {
   "itemKey": "OPCF47",
   "itemValue": "OPCF 47"
 },
 {
   "itemKey": "OPCF48",
   "itemValue": "OPCF 48"
 },
 {
   "itemKey": "SEF96",
   "itemValue": "S.E.F. No. 96"
 },
 {
   "itemKey": "SEF99",
   "itemValue": "S.E.F. No. 99"
 },
 {
   "itemKey": "OEF71",
   "itemValue": "O.E.F. 71"
 },
 {
   "itemKey": "OEF72",
   "itemValue": "O.E.F. 72"
 },
 {
   "itemKey": "OEF75",
   "itemValue": "O.E.F. 75"
 },
 {
   "itemKey": "OEF77",
   "itemValue": "O.E.F. 77"
 }
]