[
  {
    "itemKey": "WT",
    "itemValue": "Without Trailer"
  },
  {
    "itemKey": "CA",
    "itemValue": "Cargo"
  },
  {
    "itemKey": "NC",
    "itemValue": "Non-Cargo"
  },
  {
    "itemKey": "CD",
    "itemValue": "Converter Dolly"
  },
  {
    "itemKey": "OT",
    "itemValue": "Other"
  }
]