[
	{
	"itemKey":"Tow",
	"itemValue":"Towing Operations only"
	},
	{
	"itemKey":"TowGar",
	"itemValue":"Towing Operations and Garage Operations"
	},
	{
	"itemKey":"TowOth",
	"itemValue":"Towing and Incidental Other Operations"
	},
	{
	"itemKey":"TowEq",
	"itemValue":"Towing Operation Including Moving Heavy Equipment"
	},
	{
	"itemKey":"Oth",
	"itemValue":"Other"
	},
	{
	"itemKey":"RdAss",
	"itemValue":"Roadside Assistance"
	}			
]