[
	{
	"itemKey":"QL",
	"itemValue":"Quote Letter"
	},
	{
	"itemKey":"PP",
	"itemValue":"Policy Package"
	},
	{
	"itemKey":"UP",
	"itemValue":"Uploaded"
	},
	{
	"itemKey":"PC",
	"itemValue":"Policy Change"
	},
	{
	"itemKey":"CA",
	"itemValue":"Policy Cancel"
	},
	{
	"itemKey":"EP",
	"itemValue":"Policy Extension"
	}
]