[
  {
    "itemKey": "TT",
    "itemValue": "Tow Truck"
  },
  {
    "itemKey": "LTT",
    "itemValue": "Light Tow Truck"
  },
  {
    "itemKey": "HTT",
    "itemValue": "Heavy Tow Truck"
  },  
  {
    "itemKey": "HC",
    "itemValue": "Heavy Commercial (1 ton)"
  },  
  {
    "itemKey": "LC",
    "itemValue": "Light Commercial"
  },
  {
    "itemKey": "SHT",
    "itemValue": "Shunter"
  },
  {
    "itemKey": "TRC",
    "itemValue": "Tractor"
  },
  {
    "itemKey": "ST",
    "itemValue": "Straight Truck"
  },
  {
    "itemKey": "TR",
    "itemValue": "Trailer"
  },
  {
    "itemKey": "ET",
    "itemValue": "Excess Trailer"
  },
  {
    "itemKey": "OP27",
    "itemValue": "OPCF 27B"
  }      
]