package com.ds.ins.services.validation.rules.trucking

// CGL Total Premium cannot be zero

rule "VR-TR-CGL-02" extends "VR-TR-BASE"
	when
		$pt: PolicyTransaction()
		$sp: SubPolicy(subPolicyTypeCd == "CGL" && (isActive() || isPending())) from $pt.subPolicies 
		not Premium(writtenPremium != null && writtenPremium != 0) from $sp.subPolicyPremium
	then
		ruleResult.addRule("VR-TR-CGL-02");
end