package com.ds.ins.services.validation.rules.trucking

//If coverageCd =  MTCC is not added but endorsementCd=CDEC exists 
//display validation message on Policy Actions

rule "VR-TR-COV-22" extends "VR-TR-BASE"
	when
		$pt:    PolicyTransaction()
		PolicyTerm(termEffDate.toLocalDate().isEqual(LocalDate.of(2021, 1, 1)) || termEffDate.toLocalDate().isAfter(LocalDate.of(2021, 1, 1))) from $pt.policyTerm
		$sp:    SubPolicy(subPolicyTypeCd == "CGO" && (isActive() || isPending())) from $pt.subPolicies
		$end:   Endorsement(endorsementCd == "CDEC" && (isActive() || isPending())) from $sp.coverageDetail.endorsements
		not (Coverage(coverageCode == "MTCC" && (isActive() || isPending())) from $sp.coverageDetail.coverages)
	then
		ruleResult.addRule("VR-TR-COV-22");
end
		