{
	"uiConfigId" : "TowingNonFleetUIConfig",
	"uiDataExtensionConfigs": [
		{
			"dataExtensionId" : "EXT72",
			"uiDataDefinitionConfigs": [
				{
					"columnId": "OEF72_AltNum",
					"columnWidth":"1"
				},
				{
					"columnId": "OEF72_ChangeDesc",
					"columnWidth":"15"
				}
			]
		},
		{
			"dataExtensionId" : "EXT28A-1",
			"uiDataDefinitionConfigs": [
				{
					"columnId": "OPCF28A_AutoNum",
					"columnWidth":"14%"
				},
				{
					"columnId": "OPCF28A_ModYear",
					"columnWidth":"14%"
				},
				{
					"columnId": "OPCF28A_Make",
					"columnWidth":"44%"
				},
				{
					"columnId": "OPCF28A_SerNum",
					"columnWidth":"17%"
				}								
			]
		},
		{
			"dataExtensionId" : "EXTGDPC",
			"uiDataDefinitionConfigs": [
				{
					"columnId": "GDPC_PlateNo",
					"editConverter":"TOUPPERCASE"
				}							
			]
		},
		{
			"dataExtensionId" : "EXTGDPCG",
			"uiDataDefinitionConfigs": [
				{
					"columnId": "GDPC_PlateNo",
					"editConverter":"TOUPPERCASE"
				}							
			]
		},
		{
			"dataExtensionId" : "EXTGSPC",
			"uiDataDefinitionConfigs": [
				{
					"columnId": "GSPC_PlateNo",
					"editConverter":"TOUPPERCASE"
				}							
			]
		}
	]
}